Statistical Methods for Discrete Response, Time Series, and Panel Data (W271): Group Lab 3
…
summary(data[, c("minage", "perc14_24", "unem", "vehicmilespc")])

##      minage       perc14_24          unem         vehicmilespc  
##  Min.   :18.0   Min.   :11.70   Min.   : 2.200   Min.   : 4372  
##  1st Qu.:21.0   1st Qu.:13.90   1st Qu.: 4.500   1st Qu.: 7788  
##  Median :21.0   Median :14.90   Median : 5.600   Median : 9013  
##  Mean   :20.6   Mean   :15.33   Mean   : 5.951   Mean   : 9129  
##  3rd Qu.:21.0   3rd Qu.:16.60   3rd Qu.: 7.000   3rd Qu.:10327  
##  Max.   :21.0   Max.   :20.30   Max.   :18.000   Max.   :18390

data %>% group_by(year) %>% summarise(avg_min_age=mean(minage))

## # A tibble: 25 x 2
##     year avg_min_age
##    <int>       <dbl>
##  1  1980        19.2
##  2  1981        19.2
##  3  1982        19.3
##  4  1983        19.4
##  5  1984        19.6
##  6  1985        20.0
##  7  1986        20.5
##  8  1987        20.8
##  9  1988        21.0
## 10  1989        21  
## # ... with 15 more rows
…
